[gd_scene load_steps=7 format=2]

[ext_resource path="res://Spear.tscn" type="PackedScene" id=1]
[ext_resource path="res://Sections/Tileset.tres" type="TileSet" id=2]
[ext_resource path="res://Spike.tscn" type="PackedScene" id=3]
[ext_resource path="res://Obstacle.gd" type="Script" id=4]
[ext_resource path="res://Gem.tscn" type="PackedScene" id=5]

[sub_resource type="RectangleShape2D" id=1]
extents = Vector2( 512, 36 )

[node name="1" type="Node2D"]

[node name="Spear" parent="." instance=ExtResource( 1 )]
position = Vector2( 520, 64 )

[node name="Spear2" parent="Spear" instance=ExtResource( 1 )]
position = Vector2( 0, -128 )
rotation = 3.14159

[node name="TileMap" type="TileMap" parent="."]
tile_set = ExtResource( 2 )
cell_size = Vector2( 16, 16 )
cell_quadrant_size = 8
format = 1
tile_data = PoolIntArray( -589830, 1, 0, -589829, 1, 1, -589828, 1, 1, -589827, 1, 1, -589826, 1, 1, -589825, 1, 1, -655360, 1, 1, -655359, 1, 1, -655358, 1, 1, -655357, 1, 1, -655356, 1, 1, -655355, 1, 1, -655354, 1, 1, -655353, 1, 1, -655352, 1, 1, -655351, 1, 1, -655350, 1, 1, -655349, 1, 1, -655348, 1, 1, -655347, 1, 1, -655346, 1, 1, -655345, 1, 1, -655344, 1, 1, -655343, 1, 1, -655342, 1, 1, -655341, 1, 2, -655339, 1, 65539, -655337, 1, 65539, -655335, 1, 65539, -655333, 1, 0, -655332, 1, 1, -655331, 1, 1, -655330, 1, 1, -655329, 1, 1, -655328, 1, 1, -655327, 1, 1, -655326, 1, 1, -655325, 1, 1, -655324, 1, 1, -655323, 1, 1, -655322, 1, 1, -655321, 1, 1, -655320, 1, 1, -655319, 1, 1, -655318, 1, 1, -655317, 1, 1, -655316, 1, 1, -655315, 1, 1, -655314, 1, 1, -655313, 1, 1, -655312, 1, 1, -655311, 1, 1, -655310, 1, 1, -655309, 1, 2, -524294, 1, 65536, -524293, 1, 65537, -524292, 1, 65537, -524291, 1, 65537, -524290, 1, 65537, -524289, 1, 65537, -589824, 1, 65537, -589823, 1, 65537, -589822, 1, 65537, -589821, 1, 65537, -589820, 1, 65537, -589819, 1, 65537, -589818, 1, 65537, -589817, 1, 65537, -589816, 1, 65537, -589815, 1, 65537, -589814, 1, 65537, -589813, 1, 65537, -589812, 1, 65537, -589811, 1, 65537, -589810, 1, 65537, -589809, 1, 65537, -589808, 1, 65537, -589807, 1, 65537, -589806, 1, 65537, -589805, 1, 65538, -589803, 1, 131075, -589801, 1, 131075, -589799, 1, 131075, -589797, 1, 65536, -589796, 1, 65537, -589795, 1, 65537, -589794, 1, 65537, -589793, 1, 65537, -589792, 1, 65537, -589791, 1, 65537, -589790, 1, 65537, -589789, 1, 65537, -589788, 1, 65537, -589787, 1, 65537, -589786, 1, 65537, -589785, 1, 65537, -589784, 1, 65537, -589783, 1, 65537, -589782, 1, 65537, -589781, 1, 65537, -589780, 1, 65537, -589779, 1, 65537, -589778, 1, 65537, -589777, 1, 65537, -589776, 1, 65537, -589775, 1, 65537, -589774, 1, 65537, -589773, 1, 65538, -458758, 1, 65536, -458757, 1, 65537, -458756, 1, 65537, -458755, 1, 65537, -458754, 1, 65537, -458753, 1, 65537, -524288, 1, 65537, -524287, 1, 65537, -524286, 1, 65537, -524285, 1, 65537, -524284, 1, 65537, -524283, 1, 65537, -524282, 1, 65537, -524281, 1, 65537, -524280, 1, 65537, -524279, 1, 65537, -524278, 1, 65537, -524277, 1, 65537, -524276, 1, 65537, -524275, 1, 65537, -524274, 1, 65537, -524273, 1, 65537, -524272, 1, 65537, -524271, 1, 65537, -524270, 1, 65537, -524269, 1, 65538, -524267, 1, 131075, -524265, 1, 131075, -524263, 1, 131075, -524261, 1, 65536, -524260, 1, 65537, -524259, 1, 65537, -524258, 1, 65537, -524257, 1, 65537, -524256, 1, 65537, -524255, 1, 65537, -524254, 1, 65537, -524253, 1, 65537, -524252, 1, 65537, -524251, 1, 65537, -524250, 1, 65537, -524249, 1, 65537, -524248, 1, 65537, -524247, 1, 65537, -524246, 1, 65537, -524245, 1, 65537, -524244, 1, 65537, -524243, 1, 65537, -524242, 1, 65537, -524241, 1, 65537, -524240, 1, 65537, -524239, 1, 65537, -524238, 1, 65537, -524237, 1, 65538, -393222, 1, 65536, -393221, 1, 65537, -393220, 1, 65537, -393219, 1, 65537, -393218, 1, 65537, -393217, 1, 65537, -458752, 1, 65537, -458751, 1, 65537, -458750, 1, 65537, -458749, 1, 65537, -458748, 1, 65537, -458747, 1, 65537, -458746, 1, 65537, -458745, 1, 65537, -458744, 1, 65537, -458743, 1, 65537, -458742, 1, 65537, -458741, 1, 65537, -458740, 1, 65537, -458739, 1, 65537, -458738, 1, 65537, -458737, 1, 65537, -458736, 1, 65537, -458735, 1, 65537, -458734, 1, 65537, -458733, 1, 0, -458732, 1, 1, -458731, 1, 3, -458730, 1, 1, -458729, 1, 3, -458728, 1, 1, -458727, 1, 3, -458726, 1, 1, -458725, 1, 3, -458724, 1, 65537, -458723, 1, 65537, -458722, 1, 65537, -458721, 1, 65537, -458720, 1, 65537, -458719, 1, 65537, -458718, 1, 65537, -458717, 1, 65537, -458716, 1, 65537, -458715, 1, 65537, -458714, 1, 65537, -458713, 1, 65537, -458712, 1, 65537, -458711, 1, 65537, -458710, 1, 65537, -458709, 1, 65537, -458708, 1, 65537, -458707, 1, 65537, -458706, 1, 65537, -458705, 1, 65537, -458704, 1, 65537, -458703, 1, 65537, -458702, 1, 65537, -458701, 1, 65538, -327686, 1, 131072, -327685, 1, 131073, -327684, 1, 131073, -327683, 1, 131073, -327682, 1, 131073, -327681, 1, 131073, -393216, 1, 131073, -393215, 1, 131073, -393214, 1, 131073, -393213, 1, 131073, -393212, 1, 131073, -393211, 1, 131073, -393210, 1, 131073, -393209, 1, 131073, -393208, 1, 131073, -393207, 1, 131073, -393206, 1, 131073, -393205, 1, 131073, -393204, 1, 131073, -393203, 1, 131073, -393202, 1, 131073, -393201, 1, 131073, -393200, 1, 131073, -393199, 1, 131073, -393198, 1, 131073, -393197, 1, 131073, -393196, 1, 131073, -393195, 1, 131073, -393194, 1, 131073, -393193, 1, 131073, -393192, 1, 131073, -393191, 1, 131073, -393190, 1, 131073, -393189, 1, 131073, -393188, 1, 131073, -393187, 1, 131073, -393186, 1, 131073, -393185, 1, 131073, -393184, 1, 131073, -393183, 1, 131073, -393182, 1, 131073, -393181, 1, 131073, -393180, 1, 131073, -393179, 1, 131073, -393178, 1, 131073, -393177, 1, 131073, -393176, 1, 131073, -393175, 1, 131073, -393174, 1, 131073, -393173, 1, 131073, -393172, 1, 131073, -393171, 1, 131073, -393170, 1, 131073, -393169, 1, 131073, -393168, 1, 131073, -393167, 1, 131073, -393166, 1, 131073, -393165, 1, 131074, 393204, 1, 0, 393205, 1, 1, 393206, 1, 1, 393207, 1, 1, 393208, 1, 1, 393209, 1, 1, 393210, 1, 1, 393211, 1, 1, 393212, 1, 1, 393213, 1, 1, 393214, 1, 1, 393215, 1, 1, 327680, 1, 1, 327681, 1, 1, 327682, 1, 1, 327683, 1, 1, 327684, 1, 1, 327685, 1, 1, 327686, 1, 1, 327687, 1, 1, 327688, 1, 1, 327689, 1, 1, 327690, 1, 2, 327702, 1, 0, 327703, 1, 1, 327704, 1, 1, 327705, 1, 1, 327706, 1, 1, 327707, 1, 1, 327708, 1, 1, 327709, 1, 1, 327710, 1, 1, 327711, 1, 1, 327712, 1, 1, 327713, 1, 1, 327714, 1, 1, 327715, 1, 1, 327716, 1, 1, 327717, 1, 1, 327718, 1, 1, 327719, 1, 1, 327720, 1, 1, 327721, 1, 1, 327722, 1, 1, 327723, 1, 1, 327724, 1, 2, 327727, 1, 0, 327728, 1, 1, 327729, 1, 1, 327730, 1, 1, 327731, 1, 2, 458740, 1, 65536, 458741, 1, 65537, 458742, 1, 65537, 458743, 1, 65537, 458744, 1, 65537, 458745, 1, 65537, 458746, 1, 65537, 458747, 1, 65537, 458748, 1, 65537, 458749, 1, 65537, 458750, 1, 65537, 458751, 1, 65537, 393216, 1, 65537, 393217, 1, 65537, 393218, 1, 65537, 393219, 1, 65537, 393220, 1, 65537, 393221, 1, 65537, 393222, 1, 65537, 393223, 1, 65537, 393224, 1, 65537, 393225, 1, 65537, 393226, 1, 65538, 393238, 1, 65536, 393239, 1, 65537, 393240, 1, 65537, 393241, 1, 65537, 393242, 1, 65537, 393243, 1, 65537, 393244, 1, 65537, 393245, 1, 65537, 393246, 1, 65537, 393247, 1, 65537, 393248, 1, 65537, 393249, 1, 65537, 393250, 1, 65537, 393251, 1, 65537, 393252, 1, 65537, 393253, 1, 65537, 393254, 1, 65537, 393255, 1, 65537, 393256, 1, 65537, 393257, 1, 65537, 393258, 1, 65537, 393259, 1, 65537, 393260, 1, 65538, 393263, 1, 65536, 393264, 1, 65537, 393265, 1, 65537, 393266, 1, 65537, 393267, 1, 65538, 524276, 1, 65536, 524277, 1, 65537, 524278, 1, 65537, 524279, 1, 65537, 524280, 1, 65537, 524281, 1, 65537, 524282, 1, 65537, 524283, 1, 65537, 524284, 1, 65537, 524285, 1, 65537, 524286, 1, 65537, 524287, 1, 65537, 458752, 1, 65537, 458753, 1, 65537, 458754, 1, 65537, 458755, 1, 65537, 458756, 1, 65537, 458757, 1, 65537, 458758, 1, 65537, 458759, 1, 65537, 458760, 1, 65537, 458761, 1, 65537, 458762, 1, 65538, 458774, 1, 65536, 458775, 1, 65537, 458776, 1, 65537, 458777, 1, 65537, 458778, 1, 65537, 458779, 1, 65537, 458780, 1, 65537, 458781, 1, 65537, 458782, 1, 65537, 458783, 1, 65537, 458784, 1, 65537, 458785, 1, 65537, 458786, 1, 65537, 458787, 1, 65537, 458788, 1, 65537, 458789, 1, 65537, 458790, 1, 65537, 458791, 1, 65537, 458792, 1, 65537, 458793, 1, 65537, 458794, 1, 65537, 458795, 1, 65537, 458796, 1, 65538, 458799, 1, 65536, 458800, 1, 65537, 458801, 1, 65537, 458802, 1, 65537, 458803, 1, 65538, 589812, 1, 65536, 589813, 1, 65537, 589814, 1, 65537, 589815, 1, 65537, 589816, 1, 65537, 589817, 1, 65537, 589818, 1, 65537, 589819, 1, 65537, 589820, 1, 65537, 589821, 1, 65537, 589822, 1, 65537, 589823, 1, 65537, 524288, 1, 65537, 524289, 1, 65537, 524290, 1, 65537, 524291, 1, 65537, 524292, 1, 65537, 524293, 1, 65537, 524294, 1, 65537, 524295, 1, 65537, 524296, 1, 65537, 524297, 1, 65537, 524298, 1, 65538, 524310, 1, 65536, 524311, 1, 65537, 524312, 1, 65537, 524313, 1, 65537, 524314, 1, 65537, 524315, 1, 65537, 524316, 1, 65537, 524317, 1, 65537, 524318, 1, 65537, 524319, 1, 65537, 524320, 1, 65537, 524321, 1, 65537, 524322, 1, 65537, 524323, 1, 65537, 524324, 1, 65537, 524325, 1, 65537, 524326, 1, 65537, 524327, 1, 65537, 524328, 1, 65537, 524329, 1, 65537, 524330, 1, 65537, 524331, 1, 65537, 524332, 1, 65538, 524335, 1, 65536, 524336, 1, 65537, 524337, 1, 65537, 524338, 1, 65537, 524339, 1, 65538, 655348, 1, 131072, 655349, 1, 131073, 655350, 1, 131073, 655351, 1, 131073, 655352, 1, 131073, 655353, 1, 131073, 655354, 1, 131073, 655355, 1, 131073, 655356, 1, 131073, 655357, 1, 131073, 655358, 1, 131073, 655359, 1, 131073, 589824, 1, 131073, 589825, 1, 131073, 589826, 1, 131073, 589827, 1, 131073, 589828, 1, 131073, 589829, 1, 131073, 589830, 1, 131073, 589831, 1, 131073, 589832, 1, 131073, 589833, 1, 131073, 589834, 1, 131074, 589846, 1, 131072, 589847, 1, 131073, 589848, 1, 131073, 589849, 1, 131073, 589850, 1, 131073, 589851, 1, 131073, 589852, 1, 131073, 589853, 1, 131073, 589854, 1, 131073, 589855, 1, 131073, 589856, 1, 131073, 589857, 1, 131073, 589858, 1, 131073, 589859, 1, 131073, 589860, 1, 131073, 589861, 1, 131073, 589862, 1, 131073, 589863, 1, 131073, 589864, 1, 131073, 589865, 1, 131073, 589866, 1, 131073, 589867, 1, 131073, 589868, 1, 131074, 589871, 1, 131072, 589872, 1, 131073, 589873, 1, 131073, 589874, 1, 131073, 589875, 1, 131074 )

[node name="Spike" parent="." instance=ExtResource( 3 )]
position = Vector2( 160, 64 )

[node name="Spike" parent="Spike" instance=ExtResource( 3 )]
position = Vector2( -336, 0 )

[node name="CollisionDeathPlane2" type="Area2D" parent="."]
script = ExtResource( 4 )

[node name="DeathPlane_Bottom" type="CollisionShape2D" parent="CollisionDeathPlane2"]
position = Vector2( 320, 156 )
shape = SubResource( 1 )

[node name="DeathPlane_Top" type="CollisionShape2D" parent="CollisionDeathPlane2"]
position = Vector2( 320, -184 )
shape = SubResource( 1 )

[node name="Gem" parent="." instance=ExtResource( 5 )]
position = Vector2( 521, 8 )

[connection signal="body_entered" from="CollisionDeathPlane2" to="Spear" method="_on_Player_entered"]
